<?xml version="1.0" encoding="utf-8"?>
<!-- Generator: Adobe Illustrator 21.0.0, SVG Export Plug-In . SVG Version: 6.00 Build 0)  -->
<svg version="1.1" id="Capa_1" xmlns="http://www.w3.org/2000/svg" xmlns:xlink="http://www.w3.org/1999/xlink" x="0px" y="0px"
	 viewBox="0 0 356.6 356.6" style="enable-background:new 0 0 356.6 356.6;" xml:space="preserve">
<style type="text/css">
	.st0{fill:#BE0A26;}
</style>
<g>
	<g>
		<path class="st0" d="M151.9,0H30.2c-9.5,0-17.1,7.7-17.1,17.1v322.4c0,9.5,7.7,17.1,17.1,17.1h121.7c9.5,0,17.1-7.7,17.1-17.1
			V17.1C169,7.7,161.4,0,151.9,0z M153,339.5c0,0.6-0.5,1.1-1.1,1.1H30.2c-0.6,0-1.1-0.5-1.1-1.1V17.1c0-0.6,0.5-1.1,1.1-1.1h121.7
			c0.6,0,1.1,0.5,1.1,1.1V339.5z"/>
	</g>
</g>
<g>
	<g>
		<path class="st0" d="M91,40.3L91,40.3c-23.1,0-41.8,18.7-41.8,41.8c0,23.1,18.7,41.8,41.8,41.8c23,0,41.8-18.6,41.8-41.7
			C132.9,59.2,114.2,40.4,91,40.3z M116.9,82.3C116.8,96.5,105.2,108,91,108c-14.3,0-25.8-11.6-25.8-25.8
			c0-14.3,11.6-25.8,25.8-25.8c14.3,0,25.8,11.6,25.8,25.8C116.9,82.2,116.9,82.3,116.9,82.3z"/>
	</g>
</g>
<g>
	<g>
		<path class="st0" d="M124.9,174.2H57.2c-4.4,0-8,3.6-8,8s3.6,8,8,8h67.7c4.4,0,8-3.6,8-8S129.3,174.2,124.9,174.2z"/>
	</g>
</g>
<g>
	<g>
		<path class="st0" d="M124.9,217.4H57.2c-4.4,0-8,3.6-8,8s3.6,8,8,8h67.7c4.4,0,8-3.6,8-8S129.3,217.4,124.9,217.4z"/>
	</g>
</g>
<g>
	<g>
		<path class="st0" d="M124.9,260.8H57.2c-4.4,0-8,3.6-8,8s3.6,8,8,8h67.7c4.4,0,8-3.6,8-8S129.3,260.8,124.9,260.8z"/>
	</g>
</g>
<g>
	<g>
		<path class="st0" d="M326.4,0H204.7c-9.5,0-17.1,7.7-17.1,17.1v322.4c0,9.5,7.7,17.1,17.1,17.1h121.7c9.5,0,17.1-7.7,17.1-17.1
			V17.1C343.5,7.7,335.9,0,326.4,0z M327.5,339.5c0,0.6-0.5,1.1-1.1,1.1H204.7c-0.6,0-1.1-0.5-1.1-1.1V17.1c0-0.6,0.5-1.1,1.1-1.1
			h121.7c0.6,0,1.1,0.5,1.1,1.1V339.5z"/>
	</g>
</g>
<g>
	<g>
		<path class="st0" d="M265.6,40.3L265.6,40.3c-23.1,0-41.8,18.7-41.8,41.8c0,23.1,18.7,41.8,41.8,41.8c23,0,41.8-18.6,41.8-41.7
			C307.5,59.2,288.8,40.4,265.6,40.3z M291.4,82.3c-0.1,14.2-11.6,25.7-25.8,25.7c-14.3,0-25.8-11.6-25.8-25.8
			c0-14.3,11.6-25.8,25.8-25.8c14.3,0,25.8,11.6,25.8,25.8C291.4,82.2,291.4,82.3,291.4,82.3z"/>
	</g>
</g>
<g>
	<g>
		<path class="st0" d="M299.4,174.2h-67.7c-4.4,0-8,3.6-8,8s3.6,8,8,8h67.7c4.4,0,8-3.6,8-8S303.9,174.2,299.4,174.2z"/>
	</g>
</g>
<g>
	<g>
		<path class="st0" d="M299.4,217.4h-67.7c-4.4,0-8,3.6-8,8s3.6,8,8,8h67.7c4.4,0,8-3.6,8-8S303.9,217.4,299.4,217.4z"/>
	</g>
</g>
<g>
	<g>
		<path class="st0" d="M299.4,260.8h-67.7c-4.4,0-8,3.6-8,8s3.6,8,8,8h67.7c4.4,0,8-3.6,8-8S303.9,260.8,299.4,260.8z"/>
	</g>
</g>
</svg>
